<svg xmlns="http://www.w3.org/2000/svg" width="13.423" height="11.777" viewBox="0 0 13.423 11.777">
  <path id="Demo_1_-_bath" data-name="Demo 1 - bath" d="M16.358,25.047l.318.479a.63.63,0,1,1-.769.613.62.62,0,0,1,.038-.2l-.348-.516a2.423,2.423,0,0,1-.638.092H8.468a2.425,2.425,0,0,1-.639-.092l-.351.516a.619.619,0,0,1,.036.2.63.63,0,1,1-.767-.613l.318-.484a3.547,3.547,0,0,1-1.646-2.9H18A3.547,3.547,0,0,1,16.358,25.047Zm1.652-4.582H16.745V16.681A1.68,1.68,0,0,0,15.067,15a1.652,1.652,0,0,0-.69.152l-.006-.006a1.293,1.293,0,0,0-1.305.066.216.216,0,0,0-.033.332l1.492,1.5a.217.217,0,0,0,.173.062.213.213,0,0,0,.158-.095,1.3,1.3,0,0,0,.115-1.2c.032,0,.063-.009.1-.009a.84.84,0,0,1,.838.84v3.826H5.419a.42.42,0,0,0-.419.42v.42a.42.42,0,0,0,.419.42H18a.42.42,0,0,0,.419-.42v-.42a.42.42,0,0,0-.419-.42Zm-5.249-3.783a.207.207,0,1,0-.207-.207A.207.207,0,0,0,12.761,16.681Zm1.048.63a.207.207,0,1,0-.207.207.207.207,0,0,0,.207-.207Zm-1.891-.21a.207.207,0,1,0-.207-.207A.207.207,0,0,0,11.918,17.1Zm1.262,1.261a.207.207,0,1,0-.207-.207A.207.207,0,0,0,13.18,18.362Zm-2.1-.84a.207.207,0,1,0-.207-.207A.207.207,0,0,0,11.083,17.522Zm1.678,1.261a.207.207,0,1,0,.207.207A.207.207,0,0,0,12.761,18.782Zm-.42-.84a.207.207,0,1,0-.207-.207A.207.207,0,0,0,12.34,17.942Zm-.835.84a.207.207,0,1,0-.207-.207A.207.207,0,0,0,11.5,18.782Z" transform="translate(-5 -14.999)" fill="#909090"/>
</svg>
