<svg xmlns="http://www.w3.org/2000/svg" width="6.338" height="15.018" viewBox="0 0 6.338 15.018">
  <path id="fb" d="M49.458,8.557a1.518,1.518,0,0,1,1.049-.278c.222,0,.39,0,.5.009s.223.018.327.032v-2.2q-.4-.061-.8-.093T49.767,6a3.522,3.522,0,0,0-2.378.722,2.58,2.58,0,0,0-.831,2.063V10.5H45v2.134h1.558v8.386h2.68V12.631h2.036V10.5H49.161V9.61A1.45,1.45,0,0,1,49.458,8.557Z" transform="translate(-45 -6)" fill="#afa170"/>
</svg>
