<svg xmlns="http://www.w3.org/2000/svg" width="14.557" height="15.972" viewBox="0 0 14.557 15.972">
  <g id="Icon_feather-bell" data-name="Icon feather-bell" transform="translate(0.9 0.9)">
    <path id="Path_7" data-name="Path 7" d="M15.131,7.252a4.252,4.252,0,0,0-8.5,0c0,4.961-2.126,6.378-2.126,6.378H17.257s-2.126-1.417-2.126-6.378" transform="translate(-4.5 -3)" fill="none" stroke="#afa170" stroke-linecap="round" stroke-linejoin="round" stroke-width="1.8"/>
    <path id="Path_8" data-name="Path 8" d="M17.857,31.5a1.417,1.417,0,0,1-2.452,0" transform="translate(-10.253 -18.035)" fill="none" stroke="#afa170" stroke-linecap="round" stroke-linejoin="round" stroke-width="1.8"/>
  </g>
</svg>
