<svg xmlns="http://www.w3.org/2000/svg" width="18.149" height="18" viewBox="0 0 18.149 18">
  <g id="Group_24" data-name="Group 24" transform="translate(-828.351 -238)">
    <g id="Rectangle_135" data-name="Rectangle 135" transform="translate(828.351 238)" fill="none" stroke="#4a4a4a" stroke-width="1.8">
      <rect width="18.149" height="7" stroke="none"/>
      <rect x="0.9" y="0.9" width="16.349" height="5.2" fill="none"/>
    </g>
    <g id="Rectangle_136" data-name="Rectangle 136" transform="translate(828.351 249)" fill="none" stroke="#4a4a4a" stroke-width="1.8">
      <rect width="18.149" height="7" stroke="none"/>
      <rect x="0.9" y="0.9" width="16.349" height="5.2" fill="none"/>
    </g>
  </g>
</svg>
