<svg id="Artboard_13" xmlns="http://www.w3.org/2000/svg" width="15.159" height="15.159" viewBox="0 0 15.159 15.159">
  <path id="Path_46" d="M17.791,21.159H9.368A3.372,3.372,0,0,1,6,17.791V9.368A3.372,3.372,0,0,1,9.368,6h8.423a3.372,3.372,0,0,1,3.368,3.368v8.423A3.372,3.372,0,0,1,17.791,21.159ZM9.368,7.139A2.232,2.232,0,0,0,7.139,9.368v8.423A2.232,2.232,0,0,0,9.368,20.02h8.423a2.232,2.232,0,0,0,2.229-2.229V9.368a2.232,2.232,0,0,0-2.229-2.229Z" transform="translate(-6 -6)"/>
  <rect id="Rectangle_2" width="1.311" height="1.311" rx="0.656" transform="translate(11.341 2.166)"/>
  <path id="Path_47" d="M37.549,41.909a4.359,4.359,0,1,1,4.359-4.359A4.359,4.359,0,0,1,37.549,41.909Zm0-7.579a3.22,3.22,0,1,0,3.22,3.22A3.22,3.22,0,0,0,37.549,34.329Z" transform="translate(-29.97 -29.97)"/>
</svg>
