<svg xmlns="http://www.w3.org/2000/svg" width="11.28" height="11.28" viewBox="0 0 11.28 11.28">
  <path id="Icon_open-resize-both" data-name="Icon open-resize-both" d="M5.64,0,7.98,2.341,2.341,7.98,0,5.64v5.64H5.64L3.3,8.939,8.939,3.3,11.28,5.64V0Z" fill="#909090"/>
</svg>
