<svg xmlns="http://www.w3.org/2000/svg" width="17.834" height="14.451" viewBox="0 0 17.834 14.451">
    <path id="Artboard_12"
          d="M24.834,20.621a7.265,7.265,0,0,1-2.1.566,3.653,3.653,0,0,0,1.609-2.015,7.343,7.343,0,0,1-2.323.885,3.66,3.66,0,0,0-6.236,3.332,10.4,10.4,0,0,1-7.541-3.809,3.639,3.639,0,0,0,1.132,4.866,3.647,3.647,0,0,1-1.657-.456v.045A3.652,3.652,0,0,0,10.65,27.61a3.718,3.718,0,0,1-.964.127A3.668,3.668,0,0,1,9,27.672,3.663,3.663,0,0,0,12.417,30.2,7.408,7.408,0,0,1,7,31.713,10.415,10.415,0,0,0,23.019,22.98c0-.159,0-.316-.011-.473a7.417,7.417,0,0,0,1.826-1.887Z"
          transform="translate(-7 -18.898)"/>
</svg>
