<svg xmlns="http://www.w3.org/2000/svg" width="17.678" height="12.528" viewBox="0 0 17.678 12.528">
  <path id="youtube" d="M23.648,25.377c-.891-.891-3.953-.724-7.809-.877-3.856.153-6.918-.014-7.809.877C7.418,25.989,7,26.491,7,30.764s.418,4.788,1.03,5.387c.891.891,3.953.724,7.809.877,3.856-.153,6.918.014,7.809-.877.612-.612,1.03-1.114,1.03-5.387S24.261,25.989,23.648,25.377Zm-9.591,8.032V28.077L18.6,30.75Z" transform="translate(-7 -24.5)" fill="#afa170"/>
</svg>
