<?xml version="1.0" encoding="utf-8"?>
<!-- Generator: Adobe Illustrator 26.0.2, SVG Export Plug-In . SVG Version: 6.00 Build 0)  -->
<svg version="1.1" id="Layer_1" xmlns="http://www.w3.org/2000/svg" xmlns:xlink="http://www.w3.org/1999/xlink" x="0px" y="0px"
	 viewBox="0 0 140 140" style="enable-background:new 0 0 140 140;" xml:space="preserve">
<g>
	<path class="fill-current" d="M7.3,61.7L7.3,61.7c2.4-2.3,6.2-2.3,8.5,0.1l48.9,50c2.3,2.4,2.3,6.2-0.1,8.5l0,0c-2.4,2.3-6.2,2.3-8.5-0.1l-48.9-50
		C4.9,67.8,5,64,7.3,61.7z"/>
</g>
<g>
	<path class="fill-current" d="M7.2,61.8l48.9-50c2.3-2.4,6.1-2.4,8.5-0.1l0,0c2.4,2.3,2.4,6.1,0.1,8.5l-48.9,50c-2.3,2.4-6.1,2.4-8.5,0.1l0,0
		C4.9,67.9,4.9,64.1,7.2,61.8z"/>
</g>
<g>
	<path class="fill-current" d="M17.5,60h116c3.3,0,6,2.7,6,6v0c0,3.3-2.7,6-6,6h-116c-3.3,0-6-2.7-6-6v0C11.5,62.7,14.2,60,17.5,60z"/>
</g>
</svg>
