<svg xmlns="http://www.w3.org/2000/svg" xmlns:xlink="http://www.w3.org/1999/xlink" width="41.409" height="58.942" viewBox="0 0 41.409 58.942">
  <defs>
    <filter id="Icon_ionic-ios-arrow-down" x="0" y="0" width="41.409" height="58.942" filterUnits="userSpaceOnUse">
      <feOffset dy="3" input="SourceAlpha"/>
      <feGaussianBlur stdDeviation="3" result="blur"/>
      <feFlood flood-opacity="0.161"/>
      <feComposite operator="in" in2="blur"/>
      <feComposite in="SourceGraphic"/>
    </filter>
  </defs>
  <g transform="matrix(1, 0, 0, 1, 0, 0)" filter="url(#Icon_ionic-ios-arrow-down)">
    <path id="Icon_ionic-ios-arrow-down-2" data-name="Icon ionic-ios-arrow-down" d="M20.479,16.352,35.96.859a2.913,2.913,0,0,1,4.132,0,2.95,2.95,0,0,1,0,4.144L22.551,22.557a2.92,2.92,0,0,1-4.035.085L.853,5.016A2.926,2.926,0,0,1,4.986.872Z" transform="translate(9 46.94) rotate(-90)" fill="#fff"/>
  </g>
</svg>
