<svg xmlns="http://www.w3.org/2000/svg" width="7.609" height="18.03" viewBox="0 0 7.609 18.03">
  <path id="Facebook2" d="M50.353,9.07a1.823,1.823,0,0,1,1.259-.334c.266,0,.468,0,.6.011s.268.021.393.038V6.148q-.486-.073-.966-.111T50.723,6a4.229,4.229,0,0,0-2.855.866,3.1,3.1,0,0,0-1,2.476V11.4H45v2.562h1.871V24.03h3.217V13.961h2.444V11.4H50V10.334A1.742,1.742,0,0,1,50.353,9.07Z" transform="translate(-45 -6)" fill="#909090"/>
</svg>
