<svg xmlns="http://www.w3.org/2000/svg" xmlns:xlink="http://www.w3.org/1999/xlink" width="27.882" height="35.283" viewBox="0 0 27.882 35.283">
  <g transform="matrix(1, 0, 0, 1, 0, 0)" filter="url(#Icon_ionic-ios-arrow-down)">
    <path  class="fill-current" d="M8.645,6.9,15.18.363a1.23,1.23,0,0,1,1.744,0,1.245,1.245,0,0,1,0,1.75l-7.4,7.41a1.233,1.233,0,0,1-1.7.036L.36,2.117A1.235,1.235,0,0,1,2.1.368Z" transform="translate(9 23.28) rotate(-90)" />
  </g>
</svg>
