<svg xmlns="http://www.w3.org/2000/svg" width="15.514" height="18.562" viewBox="0 0 15.514 18.562">
  <g id="Icon_feather-map-pin" transform="translate(0.9 0.9)">
    <path id="Path_9" d="M18.214,8.357c0,5.333-6.857,9.9-6.857,9.9S4.5,13.69,4.5,8.357a6.857,6.857,0,1,1,13.714,0Z" transform="translate(-4.5 -1.5)" fill="none" stroke-linecap="round" stroke-linejoin="round" stroke-width="1.8"/>
    <path id="Path_10" d="M18.071,12.786A2.286,2.286,0,1,1,15.786,10.5,2.286,2.286,0,0,1,18.071,12.786Z" transform="translate(-8.929 -5.929)" fill="none" stroke-linecap="round" stroke-linejoin="round" stroke-width="1.8"/>
  </g>
</svg>
