<svg xmlns="http://www.w3.org/2000/svg" width="14.842" height="16.291" viewBox="0 0 14.842 16.291">
  <g id="Icon_feather-share-2" data-name="Icon feather-share-2" transform="translate(0.9 0.9)">
    <path class="stroke-current fill-current" d="M26.847,5.174A2.174,2.174,0,1,1,24.674,3a2.174,2.174,0,0,1,2.174,2.174Z" transform="translate(-13.805 -3)" stroke-linecap="round" stroke-linejoin="round" stroke-width="1.8"/>
    <path class="stroke-current fill-current" d="M8.847,15.674A2.174,2.174,0,1,1,6.674,13.5,2.174,2.174,0,0,1,8.847,15.674Z" transform="translate(-4.5 -8.428)" stroke-linecap="round" stroke-linejoin="round" stroke-width="1.8"/>
    <path class="stroke-current fill-current" d="M26.847,26.174A2.174,2.174,0,1,1,24.674,24,2.174,2.174,0,0,1,26.847,26.174Z" transform="translate(-13.805 -13.856)" stroke-linecap="round" stroke-linejoin="round" stroke-width="1.8"/>
    <path class="stroke-current fill-current" d="M12.885,20.265l4.949,2.884" transform="translate(-8.835 -11.925)" stroke-linecap="round" stroke-linejoin="round" stroke-width="1.8"/>
    <path class="stroke-current fill-current" d="M17.827,9.765l-4.942,2.884" transform="translate(-8.835 -6.497)"  stroke-linecap="round" stroke-linejoin="round" stroke-width="1.8"/>
  </g>
</svg>
