<svg xmlns="http://www.w3.org/2000/svg" width="11.597" height="20.283">
    <path class="fill-current" d="m3.497 10.145 7.674 7.67a1.443 1.443 0 0 1 0 2.047 1.462 1.462 0 0 1-2.053 0l-8.7-8.69a1.447 1.447 0 0 1-.042-2L9.112.423a1.45 1.45 0 1 1 2.053 2.047Z" />
</svg>
