<svg xmlns="http://www.w3.org/2000/svg" width="11.597" height="20.283" viewBox="0 0 11.597 20.283">
  <path class="fill-current" d="M10.145,8.1,17.815.426a1.443,1.443,0,0,1,2.047,0,1.462,1.462,0,0,1,0,2.053l-8.69,8.7a1.447,1.447,0,0,1-2,.042L.423,2.485A1.45,1.45,0,1,1,2.47.432Z" transform="translate(0 20.283) rotate(-90)"/>
</svg>
