<svg xmlns="http://www.w3.org/2000/svg" width="24.449" height="19.812" viewBox="0 0 24.449 19.812">
  <path id="Twitter" d="M31.449,21.26a9.96,9.96,0,0,1-2.882.776,5.008,5.008,0,0,0,2.206-2.763,10.067,10.067,0,0,1-3.184,1.213,5.018,5.018,0,0,0-8.549,4.568A14.264,14.264,0,0,1,8.7,19.832,4.989,4.989,0,0,0,10.254,26.5a5,5,0,0,1-2.272-.625v.062A5.006,5.006,0,0,0,12,30.842a5.1,5.1,0,0,1-1.321.175,5.029,5.029,0,0,1-.943-.089A5.022,5.022,0,0,0,14.426,34.4,10.156,10.156,0,0,1,7,36.467,14.279,14.279,0,0,0,28.962,24.495c0-.217,0-.433-.016-.648A10.168,10.168,0,0,0,31.449,21.26Z" transform="translate(-7 -18.898)" fill="#909090"/>
</svg>
