<svg id="Layer_1" data-name="Layer 1" xmlns="http://www.w3.org/2000/svg" viewBox="0 0 140 140">
    <g id="Flat_copy" data-name="Flat copy">
        <path d="M134.2,131V84.19c0-25.08-13.39-36.75-31.24-36.75-14.4,0-20.86,7.92-24.46,13.48V49.35H51.36c.36,7.67,0,81.65,0,81.65H78.5V85.4a18.47,18.47,0,0,1,.9-6.61c2-4.88,6.42-9.93,13.91-9.93,9.83,0,13.75,7.49,13.75,18.46V131ZM22.77,38.21c9.46,0,15.36-6.27,15.36-14.11C38,16.09,32.24,10,23,10S7.6,16.09,7.6,24.1c0,7.84,5.89,14.11,15,14.11ZM36.34,131V49.35H9.21V131Z"/>
    </g>
</svg>
