<svg xmlns="http://www.w3.org/2000/svg" width="19" height="17.308" viewBox="0 0 19 17.308">
  <path id="Icon_awesome-phone" d="M18.309.831,14.45.02a.921.921,0,0,0-1.02.47L11.648,4.276a.764.764,0,0,0,.256.947L14.153,6.9a13.2,13.2,0,0,1-6.576,5.99L5.737,10.841A.947.947,0,0,0,4.7,10.608L.541,12.23a.8.8,0,0,0-.52.933l.891,3.516a.877.877,0,0,0,.868.629C11.284,17.308,19,10.293,19,1.622A.83.83,0,0,0,18.309.831Z" transform="translate(0.001 0.001)"/>
</svg>
