<?xml version="1.0" encoding="utf-8"?>
<!-- Generator: Adobe Illustrator 25.2.3, SVG Export Plug-In . SVG Version: 6.00 Build 0)  -->
<svg version="1.1" id="Layer_1" xmlns="http://www.w3.org/2000/svg" xmlns:xlink="http://www.w3.org/1999/xlink" viewBox="0 0 140 140" style="enable-background:new 0 0 140 140;" xml:space="preserve">
<path class="st0" d="M126.6,30.8c-6.4-6.4-28.4-5.2-56.1-6.3c-27.7,1.1-49.7-0.1-56.1,6.3C10,35.2,7,38.8,7,69.5s3,34.4,7.4,38.7
	c6.4,6.4,28.4,5.2,56.1,6.3c27.7-1.1,49.7,0.1,56.1-6.3c4.4-4.4,7.4-8,7.4-38.7C134,38.8,131,35.2,126.6,30.8z M57.7,88.5V50.2
	l32.6,19.2L57.7,88.5z"/>
</svg>
